51000002cca03300
1640000000000001
0002738c00000000
0003c9490eb6f1ff
dfefcff7d7e7c7fb
dbebcbf3d3e3c3fd
ddedcdf5d5e5c5f9
d92936b6f1490e20
1030082818380424
14340c2c1c3c0222
12320a2a1a3a0626
1636030000000000
a000000d48c90070
